{
  "databases" : [ {
    "databaseName" : "x",
    "tables" : [ {
      "rowLength" : "0",
      "tableName" : "tabla",
      "Structure" : [ {
        "isnull" : "false",
        "isPrimaryKey" : "true",
        "length" : "0",
        "type" : "int",
        "isunique" : "false",
        "attributeName" : "xs",
        "foreignTable" : "",
        "foreignAttribute" : ""
      }, {
        "isnull" : "false",
        "isPrimaryKey" : "false",
        "length" : "0",
        "type" : "int",
        "isunique" : "true",
        "attributeName" : "xsd",
        "foreignTable" : "",
        "foreignAttribute" : ""
      }, {
        "isnull" : "false",
        "isPrimaryKey" : "false",
        "length" : "0",
        "type" : "int",
        "isunique" : "false",
        "attributeName" : "xsdf",
        "foreignTable" : "",
        "foreignAttribute" : ""
      }, {
        "isnull" : "false",
        "isPrimaryKey" : "false",
        "length" : "0",
        "type" : "int",
        "isunique" : "false",
        "attributeName" : "xsdfg",
        "foreignTable" : "",
        "foreignAttribute" : ""
      } ]
    }, {
      "rowLength" : "0",
      "tableName" : "tabla2",
      "Structure" : [ {
        "isnull" : "false",
        "isPrimaryKey" : "true",
        "length" : "0",
        "type" : "int",
        "isunique" : "false",
        "attributeName" : "xs",
        "foreignTable" : "",
        "foreignAttribute" : ""
      }, {
        "isnull" : "false",
        "isPrimaryKey" : "false",
        "length" : "0",
        "type" : "int",
        "isunique" : "true",
        "attributeName" : "xsd",
        "foreignTable" : "",
        "foreignAttribute" : ""
      }, {
        "isnull" : "false",
        "isPrimaryKey" : "false",
        "length" : "0",
        "type" : "int",
        "isunique" : "false",
        "attributeName" : "xsdf",
        "foreignTable" : "",
        "foreignAttribute" : ""
      } ]
    }, {
      "rowLength" : "0",
      "tableName" : "table3",
      "Structure" : [ {
        "isnull" : "false",
        "isPrimaryKey" : "true",
        "length" : "0",
        "type" : "int",
        "isunique" : "false",
        "attributeName" : "xs",
        "foreignTable" : "",
        "foreignAttribute" : ""
      }, {
        "isnull" : "false",
        "isPrimaryKey" : "false",
        "length" : "0",
        "type" : "int",
        "isunique" : "false",
        "attributeName" : "xsd",
        "foreignTable" : "",
        "foreignAttribute" : ""
      } ]
    }, {
      "rowLength" : "0",
      "tableName" : "tabla4",
      "Structure" : [ {
        "isnull" : "false",
        "isPrimaryKey" : "true",
        "length" : "0",
        "type" : "int",
        "isunique" : "false",
        "attributeName" : "xs",
        "foreignTable" : "",
        "foreignAttribute" : ""
      }, {
        "isnull" : "false",
        "isPrimaryKey" : "false",
        "length" : "0",
        "type" : "int",
        "isunique" : "false",
        "attributeName" : "xsd",
        "foreignTable" : "tabla2",
        "foreignAttribute" : "xs"
      } ]
    }, {
      "rowLength" : "0",
      "tableName" : "tablaaa",
      "Structure" : [ {
        "isnull" : "false",
        "isPrimaryKey" : "true",
        "length" : "0",
        "type" : "int",
        "isunique" : "false",
        "attributeName" : "asd",
        "foreignTable" : "",
        "foreignAttribute" : ""
      }, {
        "isnull" : "false",
        "isPrimaryKey" : "false",
        "length" : "0",
        "type" : "varchar(100)",
        "isunique" : "false",
        "attributeName" : "ass",
        "foreignTable" : "",
        "foreignAttribute" : ""
      } ]
    }, {
      "rowLength" : "0",
      "tableName" : "proba",
      "Structure" : [ {
        "isnull" : "false",
        "isPrimaryKey" : "true",
        "length" : "0",
        "type" : "int",
        "isunique" : "false",
        "attributeName" : "xs",
        "foreignTable" : "",
        "foreignAttribute" : ""
      }, {
        "isnull" : "false",
        "isPrimaryKey" : "false",
        "length" : "0",
        "type" : "int",
        "isunique" : "false",
        "attributeName" : "xsd",
        "foreignTable" : "",
        "foreignAttribute" : ""
      }, {
        "isnull" : "false",
        "isPrimaryKey" : "false",
        "length" : "0",
        "type" : "int",
        "isunique" : "false",
        "attributeName" : "xsdf",
        "foreignTable" : "",
        "foreignAttribute" : ""
      } ]
    }, {
      "rowLength" : "0",
      "tableName" : "proba5",
      "Structure" : [ {
        "isnull" : "false",
        "isPrimaryKey" : "true",
        "length" : "0",
        "type" : "int",
        "isunique" : "false",
        "attributeName" : "xs",
        "foreignTable" : "",
        "foreignAttribute" : ""
      }, {
        "isnull" : "false",
        "isPrimaryKey" : "false",
        "length" : "0",
        "type" : "int",
        "isunique" : "false",
        "attributeName" : "xsd",
        "foreignTable" : "",
        "foreignAttribute" : ""
      }, {
        "isnull" : "false",
        "isPrimaryKey" : "false",
        "length" : "0",
        "type" : "int",
        "isunique" : "false",
        "attributeName" : "xsdf",
        "foreignTable" : "",
        "foreignAttribute" : ""
      } ]
    }, {
      "rowLength" : "0",
      "tableName" : "probaJoin",
      "Structure" : [ {
        "isnull" : "false",
        "isPrimaryKey" : "true",
        "length" : "0",
        "type" : "INT",
        "isunique" : "false",
        "attributeName" : "id",
        "foreignTable" : "",
        "foreignAttribute" : ""
      }, {
        "isnull" : "false",
        "isPrimaryKey" : "false",
        "length" : "0",
        "type" : "INT",
        "isunique" : "false",
        "attributeName" : "col1",
        "foreignTable" : "",
        "foreignAttribute" : ""
      }, {
        "isnull" : "false",
        "isPrimaryKey" : "false",
        "length" : "0",
        "type" : "INT",
        "isunique" : "false",
        "attributeName" : "xsdf",
        "foreignTable" : "",
        "foreignAttribute" : ""
      } ]
    } ],
    "indexes" : [ {
      "tableName" : "tabla",
      "type" : "MongoDB",
      "isUnique" : "false",
      "keyLength" : "4",
      "indexName" : "indexnev",
      "indexAttributeName" : "xsdf"
    }, {
      "tableName" : "tabla",
      "type" : "MongoDB",
      "isUnique" : "false",
      "keyLength" : "3",
      "indexName" : "indexnev2",
      "indexAttributeName" : "xsd"
    }, {
      "tableName" : "tabla2",
      "type" : "MongoDB",
      "isUnique" : "false",
      "keyLength" : "3",
      "indexName" : "indexnev5",
      "indexAttributeName" : "xsd"
    }, {
      "tableName" : "tabla2",
      "type" : "MongoDB",
      "isUnique" : "false",
      "keyLength" : "4",
      "indexName" : "indexnev6",
      "indexAttributeName" : "xsdf"
    }, {
      "tableName" : "proba5",
      "type" : "MongoDB",
      "isUnique" : "false",
      "keyLength" : "3",
      "indexName" : "probaindex2",
      "indexAttributeName" : "xsd"
    } ]
  }, {
    "databaseName" : "University",
    "tables" : [ {
      "rowLength" : "0",
      "tableName" : "Department",
      "Structure" : [ {
        "isnull" : "false",
        "isPrimaryKey" : "true",
        "length" : "0",
        "type" : "INT",
        "isunique" : "false",
        "attributeName" : "DepartID",
        "foreignTable" : "",
        "foreignAttribute" : ""
      }, {
        "isnull" : "false",
        "isPrimaryKey" : "false",
        "length" : "0",
        "type" : "VARCHAR(100)",
        "isunique" : "false",
        "attributeName" : "Name",
        "foreignTable" : "",
        "foreignAttribute" : ""
      } ]
    }, {
      "rowLength" : "0",
      "tableName" : "Students",
      "Structure" : [ {
        "isnull" : "false",
        "isPrimaryKey" : "true",
        "length" : "0",
        "type" : "INT",
        "isunique" : "false",
        "attributeName" : "ID",
        "foreignTable" : "",
        "foreignAttribute" : ""
      }, {
        "isnull" : "false",
        "isPrimaryKey" : "false",
        "length" : "0",
        "type" : "VARCHAR(20)",
        "isunique" : "true",
        "attributeName" : "Matricol",
        "foreignTable" : "",
        "foreignAttribute" : ""
      }, {
        "isnull" : "false",
        "isPrimaryKey" : "false",
        "length" : "0",
        "type" : "FLOAT",
        "isunique" : "false",
        "attributeName" : "Grade",
        "foreignTable" : "",
        "foreignAttribute" : ""
      }, {
        "isnull" : "false",
        "isPrimaryKey" : "false",
        "length" : "0",
        "type" : "INT",
        "isunique" : "false",
        "attributeName" : "Year",
        "foreignTable" : "",
        "foreignAttribute" : ""
      }, {
        "isnull" : "false",
        "isPrimaryKey" : "false",
        "length" : "0",
        "type" : "INT",
        "isunique" : "false",
        "attributeName" : "DepartmentID",
        "foreignTable" : "Department",
        "foreignAttribute" : "DepartID"
      } ]
    } ],
    "indexes" : [ ]
  } ]
}