DROP DATABASE:
/*MongoCursor<String> mongoCursor = mongoClient.listDatabaseNames().iterator();
                    boolean ok = false;
                    while (mongoCursor.hasNext() && !ok) {
                        if (mongoCursor.next().equals(utasitasok[2])) {
                            ok = true;
                        }
                    }
                    if (!ok) {
                        out.println("Database " + utasitasok[2] + " doesn't exist!");
                    } else {
                        mongoClient.dropDatabase(utasitasok[2]);
                        out.println("Database " + utasitasok[2] + " dropped");
                    }*/
					

CREATE TABLE:
/*MongoCursor<String> mongoCursor = database.listCollectionNames().iterator();
                    boolean ok = false;
                    while (mongoCursor.hasNext() && !ok) {
                        if (mongoCursor.next().equals(name[0])) {
                            ok = true;
                        }
                    }
                    if (ok) {
                        out.println("Table " + name[0] + " exists!");
                    } else {
                        Document document;
                        document = new Document(attrs[0], null);
                        for (int i = 1; i < attrs.length; i++) {
                            document = document.append(attrs[i], null);
                        }
                        database.getCollection(name[0]).insertOne(document);
                        out.println("Table " + name[0] + " created");
                    }
                    */
					
DROP TABLE:
/*MongoCursor<String> mongoCursor = database.listCollectionNames().iterator();
                    boolean ok = false;
                    while (mongoCursor.hasNext() && !ok) {
                        if (mongoCursor.next().equals(utasitasok[2])) {
                            ok = true;
                        }
                    }
                    if (!ok) {
                        out.println("Table " + utasitasok[2] + " doesn't exist!");
                    } else {
                        MongoCollection mongoCollection = database.getCollection(utasitasok[2]);
                        mongoCollection.drop();
                        out.println("Table " + utasitasok[2] + " dropped");
                    }*/
					
CREATE INDEX:
/*
                    //create index on table(field:desc, field:asc)
                    String[] names = command.split("\\(");

                    String[] name = utasitasok[3].split("\\(");

                    String[] attrs = names[1].split(", ");

                    attrs[attrs.length - 1] = attrs[attrs.length - 1].substring(0, attrs[attrs.length - 1].length() - 1);

                    MongoCollection mongoCollection = database.getCollection(name[0]);
                    MongoCursor<String> mongoCursor = database.listCollectionNames().iterator();
                    boolean ok = false;
                    while (mongoCursor.hasNext() && !ok) {
                        if (mongoCursor.next().equals(name[0])) {
                            ok = true;
                        }
                    }
                    if (!ok) {
                        out.println("The table " + name[0] + " doesn't exist!");
                    } else {
                        ok = true;
                        for (String i : attrs) {
                            String[] jelenlegi = i.split(":");
                            Document document = (Document) mongoCollection.find(exists(jelenlegi[0])).first();
                            if (document == null) {
                                ok = false;
                            }
                        }
                        if (!ok) {
                            out.println("One of the fields doesn't exist!");
                        } else {
                            for (String i : attrs) {
                                String[] jelenlegi = i.split(":");
                                if (jelenlegi[1].toUpperCase().equals("DESC")) {
                                    mongoCollection.createIndex(Indexes.descending(jelenlegi[0]));
                                } else if (jelenlegi[1].toUpperCase().equals("ASC")) {
                                    mongoCollection.createIndex(Indexes.ascending(jelenlegi[0]));
                                }
                            }
                            out.println("Indexes created!");
                        }
                    }*/